<?xml version="1.0" encoding="UTF-8"?>
<svg width="12px" height="9px" viewBox="0 0 12 9" version="1.1" xmlns="http://www.w3.org/2000/svg" xmlns:xlink="http://www.w3.org/1999/xlink">
    <!-- Generator: Sketch 45.1 (43504) - http://www.bohemiancoding.com/sketch -->
    <title>Fill 2</title>
    <desc>Created with Sketch.</desc>
    <defs></defs>
    <g id="Symbols" stroke="none" stroke-width="1" fill="none" fill-rule="evenodd" fill-opacity="0.474156476">
        <g id="nav" transform="translate(-145.000000, -22.000000)" fill="#FFFFFF">
            <g id="Group" transform="translate(60.000000, 0.000000)">
                <g id="Page-1" transform="translate(79.000000, 15.000000)">
                    <polygon id="Fill-2" points="7.4099994 7.83999968 11.9999993 12.4199993 16.5899991 7.83999968 17.9999989 9.24999945 11.9999993 15.2499991 5.99999964 9.24999945"></polygon>
                </g>
            </g>
        </g>
    </g>
</svg>